<?xml version="1.0" encoding="utf-8"?>
<!-- Generator: Adobe Illustrator 18.0.0, SVG Export Plug-In . SVG Version: 6.00 Build 0)  -->
<!DOCTYPE svg PUBLIC "-//W3C//DTD SVG 1.1//EN" "http://www.w3.org/Graphics/SVG/1.1/DTD/svg11.dtd">
<svg version="1.1" id="Layer_1" xmlns="http://www.w3.org/2000/svg" xmlns:xlink="http://www.w3.org/1999/xlink" x="0px" y="0px"
	 viewBox="0 289 1280 131.5" style="enable-background:new 0 289 1280 131.5;" xml:space="preserve">
<g>
	<polygon points="430.8,417.5 441.1,355.5 484.5,355.5 494.6,417.5 537,417.5 511.7,284.5 473.4,284.5 479.5,323.5 445.9,323.5 
		452,284.5 413.2,284.5 387.8,417.5 	"/>
	<rect x="562" y="284.5" width="38" height="133"/>
	<polygon points="662.2,417.5 692,417.5 692,284.5 654,284.5 654,301.8 647.2,284.5 610.3,284.5 	"/>
	<path d="M789.7,417.5c14.5,0,26.7-1.8,36.7-5.3s17.9-9,23.9-16.4c6-7.4,10.2-16.4,12.8-27c2.6-10.6,3.8-23.5,3.8-38.8v-45.5h-46
		v45.1c0,6.3-0.1,11.1-0.2,14.3c-0.1,3.2-0.4,7.1-0.8,11.7c-0.4,4.6-1,8-1.8,10.2c-0.8,2.2-2,4.7-3.6,7.4c-1.6,2.7-3.5,4.6-5.8,5.8
		s-5.2,2.3-8.6,3.2c-3.4,0.9-7.4,1.4-11.9,1.4H775v-99.1h-45v133H789.7z"/>
</g>
</svg>
